module gitlab.com/icentric-common/common

go 1.19

require (
	github.com/caarlos0/env/v6 v6.6.2
	github.com/gin-gonic/gin v1.7.2
	github.com/go-errors/errors v1.4.0
	github.com/go-playground/validator/v10 v10.6.1
	github.com/google/uuid v1.2.0
	github.com/matoous/go-nanoid/v2 v2.0.0
	github.com/sendgrid/rest v2.6.9+incompatible
	github.com/sirupsen/logrus v1.8.1
	github.com/stretchr/testify v1.7.0
	gorm.io/driver/postgres v1.1.0
	gorm.io/driver/sqlite v1.1.4
	gorm.io/gorm v1.21.11
)

require (
	github.com/davecgh/go-spew v1.1.1 // indirect
	github.com/gin-contrib/sse v0.1.0 // indirect
	github.com/go-playground/locales v0.13.0 // indirect
	github.com/go-playground/universal-translator v0.17.0 // indirect
	github.com/golang/protobuf v1.3.3 // indirect
	github.com/jackc/chunkreader/v2 v2.0.1 // indirect
	github.com/jackc/pgconn v1.8.1 // indirect
	github.com/jackc/pgio v1.0.0 // indirect
	github.com/jackc/pgpassfile v1.0.0 // indirect
	github.com/jackc/pgproto3/v2 v2.0.6 // indirect
	github.com/jackc/pgservicefile v0.0.0-20200714003250-2b9c44734f2b // indirect
	github.com/jackc/pgtype v1.7.0 // indirect
	github.com/jackc/pgx/v4 v4.11.0 // indirect
	github.com/jinzhu/inflection v1.0.0 // indirect
	github.com/jinzhu/now v1.1.2 // indirect
	github.com/json-iterator/go v1.1.9 // indirect
	github.com/leodido/go-urn v1.2.0 // indirect
	github.com/mattn/go-isatty v0.0.12 // indirect
	github.com/mattn/go-sqlite3 v1.14.5 // indirect
	github.com/modern-go/concurrent v0.0.0-20180306012644-bacd9c7ef1dd // indirect
	github.com/modern-go/reflect2 v1.0.1 // indirect
	github.com/pmezard/go-difflib v1.0.0 // indirect
	github.com/ugorji/go/codec v1.1.7 // indirect
	golang.org/x/crypto v0.0.0-20210322153248-0c34fe9e7dc2 // indirect
	golang.org/x/sys v0.0.0-20201119102817-f84b799fce68 // indirect
	golang.org/x/text v0.3.3 // indirect
	gopkg.in/yaml.v2 v2.2.8 // indirect
	gopkg.in/yaml.v3 v3.0.0-20200313102051-9f266ea9e77c // indirect
)
